Много регрессий
…
# для реализации AND пишем , или &
filter(gapminder, year == 1952, pop > 10^6)

## # A tibble: 117 × 6
##        country continent  year lifeExp      pop  gdpPercap
##         <fctr>    <fctr> <int>   <dbl>    <int>      <dbl>
## 1  Afghanistan      Asia  1952  28.801  8425333   779.4453
## 2      Albania    Europe  1952  55.230  1282697  1601.0561
## 3      Algeria    Africa  1952  43.077  9279525  2449.0082
## 4       Angola    Africa  1952  30.015  4232095  3520.6103
## 5    Argentina  Americas  1952  62.485 17876956  5911.3151
## 6    Australia   Oceania  1952  69.120  8691212 10039.5956
## 7      Austria    Europe  1952  66.800  6927772  6137.0765
## 8   Bangladesh      Asia  1952  37.484 46886859   684.2442
## 9      Belgium    Europe  1952  68.000  8730405  8343.1051
## 10       Benin    Africa  1952  38.223  1738315  1062.7522
## # ... with 107 more rows

# для реализации OR пишем |
filter(gapminder, year == 1952 | year == 1953)

## # A tibble: 142 × 6
##        country continent  year lifeExp      pop  gdpPercap
##         <fctr>    <fctr> <int>   <dbl>    <int>      <dbl>
## 1  Afghanistan      Asia  1952  28.801  8425333   779.4453
## 2      Albania    Europe  1952  55.230  1282697  1601.0561
## 3      Algeria    Africa  1952  43.077  9279525  2449.0082
## 4       Angola    Africa  1952  30.015  4232095  3520.6103
## 5    Argentina  Americas  1952  62.485 17876956  5911.3151
## 6    Australia   Oceania  1952  69.120  8691212 10039.5956
## 7      Austria    Europe  1952  66.800  6927772  6137.0765
## 8      Bahrain      Asia  1952  50.939   120447  9867.0848
## 9   Bangladesh      Asia  1952  37.484 46886859   684.2442
## 10     Belgium    Europe  1952  68.000  8730405  8343.1051
## # ... with 132 more rows
…
by_year[[5, 2]] # бэби таблица

## # A tibble: 142 × 5
##        country continent lifeExp      pop  gdpPercap
##         <fctr>    <fctr>   <dbl>    <int>      <dbl>
## 1  Afghanistan      Asia  36.088 13079460   739.9811
## 2      Albania    Europe  67.690  2263554  3313.4222
## 3      Algeria    Africa  54.518 14760787  4182.6638
## 4       Angola    Africa  37.928  5894858  5473.2880
## 5    Argentina  Americas  67.065 24779799  9443.0385
## 6    Australia   Oceania  71.930 13177000 16788.6295
## 7      Austria    Europe  70.630  7544201 16661.6256
## 8      Bahrain      Asia  63.300   230800 18268.6584
## 9   Bangladesh      Asia  45.252 70759295   630.2336
## 10     Belgium    Europe  71.440  9709100 16672.1436
## # ... with 132 more rows
…
Что посмотреть и почитать: Видео от Hadley Wickham

Презенташка от Lyttle

Прогнозы за (-5) минут:

library(forecast) # прогнозирование (ARIMA / ETS / theta)
library(sophisthse) # скачивание макро-рядов с sophist.hse.ru

Загружаем ряд и прогнозируем его:

series_info # смотрим список рядов

## # A tibble: 384 × 8
##          table      tsname  freq     unit
##          <chr>       <chr> <dbl>    <chr>
## 1     POPNUM_Y    POPNUM_Y     1  тыс.чел
## 2     POPFER_Y    POPFER_Y     1 промилле
## 3     POPMOR_Y    POPMOR_Y     1 промилле
## 4     UNEMPL_Y    UNEMPL_Y     1  млн.чел
## 5     UNEMPL_Q    UNEMPL_Q     4  млн.чел
## 6     UNEMPL_M    UNEMPL_M    12  млн.чел
## 7  UNEMPL_Y_SH UNEMPL_Y_SH     1        %
## 8  UNEMPL_Q_SH UNEMPL_Q_SH     4        %
## 9  UNEMPL_M_SH UNEMPL_M_SH    12        %
## 10   EMPLDEC_Y   EMPLDEC_Y     1  тыс.чел
## # ... with 374 more rows, and 4 more variables: fullname <chr>,
## #   methodology <chr>, source <chr>, comment <chr>
…
